; Engine configuration file.
; It's best edited using the editor UI and not directly,
; since the parameters that go here are not all obvious.
;
; Format:
;   [section] ; section goes between []
;   param=value ; assign values to parameters

config_version=4

_global_script_classes=[  ]
_global_script_class_icons={

}

[application]

config/name="Scramble"
run/main_scene="res://scramble.tscn"
boot_splash/bg_color=Color( 0, 0, 0, 1 )
config/icon="res://assets/global/ui/_shared/icons/scramble/logo256.png"

[autoload]

InputMappings="*res://assets/global/input/input_mappings.gd"
MappingsExecutor="*res://assets/global/input/mappings_executor.gd"
PropertyManager="*res://assets/global/input/property_manager.gd"
Global="*res://assets/global/global.gd"

[debug]

settings/stdout/verbose_stdout=true

[display]

window/size/width=1280
window/size/height=720
window/stretch/mode="2d"

[editor_plugins]

enabled=PoolStringArray(  )

[input]

test_axis_tmp_incr={
"deadzone": 0.5,
"events": [ Object(InputEventKey,"resource_local_to_scene":false,"resource_name":"","device":0,"alt":false,"shift":false,"control":false,"meta":false,"command":false,"pressed":false,"scancode":76,"unicode":0,"echo":false,"script":null)
 ]
}
test_axis_tmp_decr={
"deadzone": 0.5,
"events": [ Object(InputEventKey,"resource_local_to_scene":false,"resource_name":"","device":0,"alt":false,"shift":false,"control":false,"meta":false,"command":false,"pressed":false,"scancode":74,"unicode":0,"echo":false,"script":null)
 ]
}
test_axis_perm_incr={
"deadzone": 0.5,
"events": [ Object(InputEventKey,"resource_local_to_scene":false,"resource_name":"","device":0,"alt":false,"shift":false,"control":false,"meta":false,"command":false,"pressed":false,"scancode":73,"unicode":0,"echo":false,"script":null)
 ]
}
test_axis_prem_decr={
"deadzone": 0.5,
"events": [ Object(InputEventKey,"resource_local_to_scene":false,"resource_name":"","device":0,"alt":false,"shift":false,"control":false,"meta":false,"command":false,"pressed":false,"scancode":75,"unicode":0,"echo":false,"script":null)
 ]
}
test_axis_toggle={
"deadzone": 0.5,
"events": [  ]
}
test_axis_set_val={
"deadzone": 0.5,
"events": [  ]
}
jump={
"deadzone": 0.5,
"events": [ Object(InputEventKey,"resource_local_to_scene":false,"resource_name":"","device":0,"alt":false,"shift":false,"control":false,"meta":false,"command":false,"pressed":false,"scancode":32,"unicode":0,"echo":false,"script":null)
 ]
}
interact={
"deadzone": 0.5,
"events": [ Object(InputEventKey,"resource_local_to_scene":false,"resource_name":"","device":0,"alt":false,"shift":false,"control":false,"meta":false,"command":false,"pressed":false,"scancode":69,"unicode":0,"echo":false,"script":null)
 ]
}

[rendering]

environment/default_clear_color=Color( 0, 0, 0, 1 )
quality/depth/hdr=false
environment/default_environment="res://default_env.tres"
